^C:\USERS\ALEXM\DESKTOP\C++\1\FOURTH\FOURTH\FOURTH.CPP
C:\USERS\ALEXM\DESKTOP\C++\1\FOURTH\FOURTH\X64\DEBUG\VC143.PDB
C:\USERS\ALEXM\DESKTOP\C++\1\FOURTH\FOURTH\X64\DEBUG\VC143.IDB
C:\USERS\ALEXM\DESKTOP\C++\1\FOURTH\FOURTH\X64\DEBUG\FOURTH.OBJ
